[
    {"name": "Hamster", "level": 2},
    {"name": "villian", "level": 1},
    {"name": "Ankvar", "level": 2},
    {"name": "Lilu", "level": 1},
    {"name": "Fox", "level": 8},
    {"name": "Weirdo", "level": 4},
    {"name": "Baltazavr", "level": 6},
    {"name": "Pika", "level": 1}
]
